%YAML 1.1
%TAG !u! tag:unity3d.com,2011:
--- !u!78 &1
TagManager:
  serializedVersion: 2
  tags:
  - Surface_Water
  - Surface_Wood
  - Surface_Rock
  - Surface_Ice
  - Surface_Glass
  - Surface_Grass
  - Surface_Sand
  - Surface_Dirt
  - Surface_Gravel
  - Surface_Concrete
  - Surface_Metal_Bright
  - Surface_Metal_Dark
  - Surface_Metal_Soft
  - Surface_Sand_Shallow
  - Surface_Sand_Deep
  - Surface_Sand_Wet
  - Surface_Tile_Bright
  - Surface_Tile_Dark
  - Surface_Gravel_Bright
  - Surface_Gravel_Dark
  - Surface_Carpet
  - Surface_Snow_Deep
  - Surface_Snow_Shallow
  - Surface_Custom_1
  - Surface_Custom_2
  - Surface_Custom_3
  - Surface_Custom_4
  - Layer_Shattered_Glass
  - Layer_Puddle
  - Layer_Foliage
  - Layer_Water_Movement
  - Layer_Wood_Creek
  - Surface_Terrain
  layers:
  - Default
  - TransparentFX
  - Ignore Raycast
  - 
  - Water
  - UI
  - 
  - 
  - PostProcessing
  - 
  - 
  - 
  - 
  - 
  - 
  - 
  - 
  - 
  - 
  - 
  - 
  - 
  - 
  - 
  - 
  - 
  - 
  - 
  - 
  - 
  - 
  - 
  m_SortingLayers:
  - name: Default
    uniqueID: 0
    locked: 0
