%YAML 1.1
%TAG !u! tag:unity3d.com,2011:
--- !u!114 &11400000
MonoBehaviour:
  m_ObjectHideFlags: 0
  m_CorrespondingSourceObject: {fileID: 0}
  m_PrefabInstance: {fileID: 0}
  m_PrefabAsset: {fileID: 0}
  m_GameObject: {fileID: 0}
  m_Enabled: 1
  m_EditorHideFlags: 0
  m_Script: {fileID: 11500000, guid: 4a874e577a1c82c40bc19c7a4e98c9f2, type: 3}
  m_Name: Dirt
  m_EditorClassIdentifier: 
  clipsOne:
  - {fileID: 8300000, guid: 2ca2e90c11c687d489de1cf9fe2587a7, type: 3}
  - {fileID: 8300000, guid: 41f20ee236012b241854bed1fbc96e29, type: 3}
  - {fileID: 8300000, guid: 6e307e3e488fde84aa1a019ca71b7bd5, type: 3}
  - {fileID: 8300000, guid: e71c28c68c7398b43b533b1ab9d786d7, type: 3}
  - {fileID: 8300000, guid: 9b95221fa273b41468ac50b9561e658f, type: 3}
  - {fileID: 8300000, guid: aba76247d9e74d843977ce68fece7e2e, type: 3}
  - {fileID: 8300000, guid: c4bb3e54694ddcd4cb1b0eb4e03555c1, type: 3}
  - {fileID: 8300000, guid: 8844fcfd1778ff24dae884c157121ef6, type: 3}
  - {fileID: 8300000, guid: 82c717f33d1733e49ae60e3e15366f62, type: 3}
  - {fileID: 8300000, guid: 2ba7b9d55343c3643b3097e76d233e90, type: 3}
  - {fileID: 8300000, guid: ff81c0e3a7136ba46a70bb4a2337134a, type: 3}
  - {fileID: 8300000, guid: a0901b5be7c3a1743812c8c95c567c11, type: 3}
  - {fileID: 8300000, guid: 56ba95d9ac210464d841119b735b47fa, type: 3}
  - {fileID: 8300000, guid: 2a42f4a03a4f1d949865a15966912512, type: 3}
  clipsTwo:
  - {fileID: 8300000, guid: 272da724036617e45878d94ded271793, type: 3}
  - {fileID: 8300000, guid: 75ec426f1ec37294fa7347f5af597b5c, type: 3}
  - {fileID: 8300000, guid: 8da190c74af62ba428baaa67394038a4, type: 3}
  - {fileID: 8300000, guid: 5d5fac728fd1d084ca27c5ab1b1e17a4, type: 3}
  - {fileID: 8300000, guid: 462434457c69e59418a49a9a5ad50819, type: 3}
  - {fileID: 8300000, guid: 17e0adb95a7b6634fb35dd037f0686fc, type: 3}
  - {fileID: 8300000, guid: 49681419e46ed54429e6e81d87dd30be, type: 3}
  - {fileID: 8300000, guid: 8e95d69edd4f546448ad351e32160abe, type: 3}
  - {fileID: 8300000, guid: 1effa83d613b138488414d0b4431d2a2, type: 3}
  - {fileID: 8300000, guid: c6452e1a2c809114d87078004e5b1752, type: 3}
  - {fileID: 8300000, guid: 291897be4493a434e9fce8aa1a45a974, type: 3}
  - {fileID: 8300000, guid: f51fe531c2c91604db3ca06b6bf016f0, type: 3}
  - {fileID: 8300000, guid: c66c27adec156d84cbc50b9dd7271564, type: 3}
  - {fileID: 8300000, guid: 8079c997de6e8e142b742b2b74a989b8, type: 3}
