%YAML 1.1
%TAG !u! tag:unity3d.com,2011:
--- !u!114 &11400000
MonoBehaviour:
  m_ObjectHideFlags: 0
  m_CorrespondingSourceObject: {fileID: 0}
  m_PrefabInstance: {fileID: 0}
  m_PrefabAsset: {fileID: 0}
  m_GameObject: {fileID: 0}
  m_Enabled: 1
  m_EditorHideFlags: 0
  m_Script: {fileID: 11500000, guid: 3929613826d409e4cbf848b4032ce533, type: 3}
  m_Name: Low_Metallic_SGO
  m_EditorClassIdentifier: 
  soundClips:
  - {fileID: 8300000, guid: 7b7064d83911cac479a83883cac733d6, type: 3}
  - {fileID: 8300000, guid: ab2e79b049dfbb646b790f34b2df6c74, type: 3}
  - {fileID: 8300000, guid: 9e6a5c34250d47d4f8ce19d5d8380173, type: 3}
  - {fileID: 8300000, guid: 560cfbc0257eb584a906412e5f370532, type: 3}
  - {fileID: 8300000, guid: b0ec437324e3d2a40b400dfeb99a2fad, type: 3}
  - {fileID: 8300000, guid: cd48adedac184864390246a7b8eb39ad, type: 3}
  - {fileID: 8300000, guid: 296f1a61797c3494c900b83b00ad450f, type: 3}
  - {fileID: 8300000, guid: 4b7c58c45eb96a84e81bbdfa16492901, type: 3}
  - {fileID: 8300000, guid: e12d70c63415eaf45a3bec3cc0fefeb9, type: 3}
  - {fileID: 8300000, guid: a859e548a8480a847a35a33fc1444254, type: 3}
  - {fileID: 8300000, guid: 853f412e278f97c4abc97d41d987d821, type: 3}
