%YAML 1.1
%TAG !u! tag:unity3d.com,2011:
--- !u!114 &11400000
MonoBehaviour:
  m_ObjectHideFlags: 0
  m_CorrespondingSourceObject: {fileID: 0}
  m_PrefabInstance: {fileID: 0}
  m_PrefabAsset: {fileID: 0}
  m_GameObject: {fileID: 0}
  m_Enabled: 1
  m_EditorHideFlags: 0
  m_Script: {fileID: 11500000, guid: 3929613826d409e4cbf848b4032ce533, type: 3}
  m_Name: Upper_Metallic_SGO
  m_EditorClassIdentifier: 
  soundClips:
  - {fileID: 8300000, guid: fb24622d19970b84ca3687b96a063746, type: 3}
  - {fileID: 8300000, guid: 7f3d8a908d1d2e54395dbf99d42e7e9b, type: 3}
  - {fileID: 8300000, guid: 75a4d6f64e246364e88562c37b8b32a3, type: 3}
  - {fileID: 8300000, guid: 84e7d3364684acc489e5d08679189810, type: 3}
  - {fileID: 8300000, guid: 6b494b468e5b37943a9fbe8170d867f5, type: 3}
  - {fileID: 8300000, guid: 6cd4102c7ad8d81448a21e93bbde5362, type: 3}
  - {fileID: 8300000, guid: a0e58c7b78b62ab41afbbb5e116faf16, type: 3}
  - {fileID: 8300000, guid: a374389b946a78f4b88f5bc1cff735cf, type: 3}
  - {fileID: 8300000, guid: 6daabdc05cfc2504e9bb1b81f283ddf8, type: 3}
  - {fileID: 8300000, guid: 7b8d63c180ee9674f83f109af1581811, type: 3}
  - {fileID: 8300000, guid: dc741229412ba934e9582a2512af9996, type: 3}
  - {fileID: 8300000, guid: 763d42f30621d994e80f9ea43100ec77, type: 3}
