%YAML 1.1
%TAG !u! tag:unity3d.com,2011:
--- !u!114 &11400000
MonoBehaviour:
  m_ObjectHideFlags: 0
  m_CorrespondingSourceObject: {fileID: 0}
  m_PrefabInstance: {fileID: 0}
  m_PrefabAsset: {fileID: 0}
  m_GameObject: {fileID: 0}
  m_Enabled: 1
  m_EditorHideFlags: 0
  m_Script: {fileID: 11500000, guid: 3929613826d409e4cbf848b4032ce533, type: 3}
  m_Name: Upper_Sword_SGO
  m_EditorClassIdentifier: 
  soundClips:
  - {fileID: 8300000, guid: 9e41f90467cf7e64d83fcd1205a1eee5, type: 3}
  - {fileID: 8300000, guid: 7761533bf7041fa40964e6eeabc65a41, type: 3}
  - {fileID: 8300000, guid: b12c6cdd8614ce94baafc0a5c8b7034b, type: 3}
  - {fileID: 8300000, guid: 459447e6c4be55e41963d114b5ac75d7, type: 3}
  - {fileID: 8300000, guid: 83d836193ce3a264dad661d9ae76b035, type: 3}
  - {fileID: 8300000, guid: 9d93d6e5d7ad8674285d11e6b73686cc, type: 3}
  - {fileID: 8300000, guid: 65df68907a9dbff458afc21fd6227027, type: 3}
  - {fileID: 8300000, guid: f2e27618d05a1f14eb8bb08362959897, type: 3}
  - {fileID: 8300000, guid: 2c5052dc72ebd2f4b8cf33f3f93d83f1, type: 3}
  - {fileID: 8300000, guid: a1d6894d2eb27ad4dbf5d8f1bbdf3d57, type: 3}
  - {fileID: 8300000, guid: b19314d8e7d7e3949b8845c5c9ae73c0, type: 3}
  - {fileID: 8300000, guid: e844835d0b9a4e0498bebf936d46f2b7, type: 3}
  - {fileID: 8300000, guid: b01881a72f05764469558b46a9fc5f1d, type: 3}
